<?xml version="1.0" encoding="utf-8"?>
<!-- Generator: Adobe Illustrator 22.1.0, SVG Export Plug-In . SVG Version: 6.00 Build 0)  -->
<svg version="1.1" id="Layer_1" xmlns="http://www.w3.org/2000/svg" xmlns:xlink="http://www.w3.org/1999/xlink" x="0px" y="0px"
	 viewBox="0 0 24 24" style="enable-background:new 0 0 24 24;" xml:space="preserve">
<path fill="#505C6A"  id="path-1_1_" d="M17.6,6.4c0-0.6-0.2-1.2-0.7-1.7c-0.9-0.9-2.3-0.9-3.2,0c-0.7,0.7-0.9,1.7-0.4,2.6l-6.1,6.1
	c-0.9-0.4-1.9-0.3-2.6,0.4c-0.9,0.9-0.9,2.3,0,3.2c0.5,0.5,1.1,0.7,1.7,0.7c0,0.6,0.2,1.2,0.7,1.7c0.9,0.9,2.3,0.9,3.2,0
	c0.7-0.7,0.9-1.7,0.4-2.6l6.1-6.1c0.9,0.4,1.9,0.3,2.6-0.4c0.9-0.9,0.9-2.3,0-3.2C18.9,6.6,18.3,6.3,17.6,6.4z"/>
</svg>
