<?xml version="1.0" encoding="utf-8"?>
<!-- Generator: Adobe Illustrator 22.1.0, SVG Export Plug-In . SVG Version: 6.00 Build 0)  -->
<svg version="1.1" id="Layer_1" xmlns="http://www.w3.org/2000/svg" xmlns:xlink="http://www.w3.org/1999/xlink" x="0px" y="0px"
	 viewBox="0 0 24 24" style="enable-background:new 0 0 24 24;" xml:space="preserve">
<path id="path-1_1_" d="M14,7.4c0,0.3,0,0.5,0.1,0.8H4.8C4.4,8.2,4,7.8,4,7.4s0.4-0.8,0.8-0.8h9.3C14,6.9,14,7.1,14,7.4z M14.1,16.2
	c-0.1,0.3-0.1,1.3,0,1.6H4.8C4.4,17.8,4,17.4,4,17s0.4-0.8,0.8-0.8H14.1z M6,12.2c0,0.3,0,0.5,0.1,0.8H4.8C4.4,13,4,12.6,4,12.2
	s0.4-0.8,0.8-0.8h1.3C6,11.7,6,11.9,6,12.2z M13.1,11.4h6.1c0.4,0,0.8,0.4,0.8,0.8S19.6,13,19.2,13h-6.1c0.1-0.3,0.1-0.5,0.1-0.8
	S13.2,11.7,13.1,11.4z M17.6,9.8c-1.3,0-2.4-1.1-2.4-2.4S16.3,5,17.6,5S20,6.1,20,7.4S18.9,9.8,17.6,9.8z M9.6,14.6
	c-1.3,0-2.4-1.1-2.4-2.4s1.1-2.4,2.4-2.4s2.4,1.1,2.4,2.4S10.9,14.6,9.6,14.6z M17.6,19.4c-1.3,0-2.4-1.1-2.4-2.4s1.1-2.4,2.4-2.4
	S20,15.7,20,17S18.9,19.4,17.6,19.4z"/>
</svg>
