<?xml version="1.0" encoding="utf-8"?>
<!-- Generator: Adobe Illustrator 22.1.0, SVG Export Plug-In . SVG Version: 6.00 Build 0)  -->
<svg version="1.1" id="Layer_1" xmlns="http://www.w3.org/2000/svg" xmlns:xlink="http://www.w3.org/1999/xlink" x="0px" y="0px"
	 viewBox="0 0 36 36" style="enable-background:new 0 0 36 36;" xml:space="preserve">
<style type="text/css">
	.st0{fill:#81888F;}
	.st1{fill:#FFFFFF;}
</style>
<circle id="path-1_1_" class="st0" cx="18" cy="18" r="18"/>
<path id="path-3_1_" class="st1" d="M18,18c-2.2,0-4-1.8-4-4s1.8-4,4-4s4,1.8,4,4S20.2,18,18,18z M18,20c2.7,0,8,1.3,8,4v1.6
	c0,0.2-0.2,0.4-0.4,0.4H10.4c-0.2,0-0.4-0.2-0.4-0.4V24C10,21.3,15.3,20,18,20z"/>
</svg>
