<?xml version="1.0" encoding="utf-8"?>
<!-- Generator: Adobe Illustrator 22.1.0, SVG Export Plug-In . SVG Version: 6.00 Build 0)  -->
<svg version="1.1" id="Layer_1" xmlns="http://www.w3.org/2000/svg" xmlns:xlink="http://www.w3.org/1999/xlink" x="0px" y="0px"
	 viewBox="0 0 24 24" style="enable-background:new 0 0 24 24;" xml:space="preserve">
<path fill="#29a8fa" id="path-1_1_" d="M16.5,10.2c1.1,0,1.6,0.4,1.5,1.4l-0.7,7.5c-0.1,0.8-0.6,1.2-1.5,1.2H7.6c-0.9,0-1.4-0.3-1.5-1.2l-0.7-7.5
	c-0.1-1,0.4-1.4,1.5-1.4H16.5z M17,5.4c0.1,0,0.1,0,0.2,0c0.7,0.1,1.1,0.3,1.3,1c0,0.1,0,0.2,0,0.3l-0.1,1.6c0,0.4-0.4,0.8-0.8,0.8
	H5.8c-0.4,0-0.8-0.3-0.8-0.8L4.8,6.8c0-0.1,0-0.2,0-0.3C5,5.8,5.5,5.5,6.2,5.4c0,0,0,0,0.1,0l1.8-0.2c0.1-0.2,0.3-0.6,0.3-0.7
	C8.7,4,9.1,3.7,9.6,3.7h4c0.6,0,0.9,0.3,1.2,0.8c0.1,0.1,0.2,0.5,0.3,0.7L17,5.4z"/>
</svg>
