<?xml version="1.0" encoding="utf-8"?>
<!-- Generator: Adobe Illustrator 22.1.0, SVG Export Plug-In . SVG Version: 6.00 Build 0)  -->
<svg version="1.1" id="Layer_1" xmlns="http://www.w3.org/2000/svg" xmlns:xlink="http://www.w3.org/1999/xlink" x="0px" y="0px"
	 viewBox="0 0 24 24" style="enable-background:new 0 0 24 24;" xml:space="preserve">
<path fill="#505C6A" id="path-1_1_" d="M12,12c-2.2,0-4-1.8-4-4s1.8-4,4-4s4,1.8,4,4S14.2,12,12,12z M12,14c2.7,0,8,1.3,8,4v1.6
	c0,0.2-0.2,0.4-0.4,0.4H4.4C4.2,20,4,19.8,4,19.6V18C4,15.3,9.3,14,12,14z"/>
</svg>
